<?xml version="1.0" encoding="utf-8"?>
<!-- Generator: Adobe Illustrator 23.1.1, SVG Export Plug-In . SVG Version: 6.00 Build 0)  -->
<svg version="1.1" id="Layer_1" xmlns="http://www.w3.org/2000/svg" xmlns:xlink="http://www.w3.org/1999/xlink" x="0px" y="0px"
	 viewBox="0 0 2126 1133.9" style="enable-background:new 0 0 2126 1133.9;" xml:space="preserve">
<style type="text/css">
	.st0{fill:#F8F8F8;}
</style>
<rect class="st0" width="2126" height="1133.9"/>
</svg>
